// Jest Snapshot v1, https://goo.gl/fbAQLP

exports[`FormRenderer Initial render should match snapshot: Initial render 1`] = `
Array [
  Object {
    "hidden": undefined,
    "name": "trigger",
    "required": false,
    "value": "",
  },
  Object {
    "hidden": undefined,
    "name": "value_result",
    "required": false,
    "value": "",
  },
  Object {
    "hidden": undefined,
    "name": "field_result",
    "required": false,
    "value": "",
  },
]
`;

exports[`FormRenderer Triggering the rule engine should result in updated values and definition 1`] = `
Array [
  Object {
    "hidden": undefined,
    "name": "trigger",
    "required": false,
    "value": "test",
  },
  Object {
    "hidden": undefined,
    "name": "value_result",
    "required": false,
    "value": "Filled by rule engine",
  },
]
`;
