// Jest Snapshot v1, https://goo.gl/fbAQLP

exports[`The \`Layout\` component renders correctly 1`] = `
<div
  className=""
>
  <WithStyles(AppBar)
    gutter={2}
    position="absolute"
  />
  <Banners />
  <WithStyles(PermanentDrawer)
    active={0}
    navigation={
      Object {
        "primary": Array [
          Object {
            "icon": "add",
          },
          Object {
            "icon": "add",
          },
          Object {
            "icon": "add",
          },
        ],
        "secondary": Array [
          Object {
            "icon": "add",
          },
          Object {
            "icon": "add",
          },
        ],
      }
    }
  />
  <WithStyles(TemporaryDrawer)
    active={0}
    navigation={
      Object {
        "primary": Array [
          Object {
            "icon": "add",
          },
          Object {
            "icon": "add",
          },
          Object {
            "icon": "add",
          },
        ],
        "secondary": Array [
          Object {
            "icon": "add",
          },
          Object {
            "icon": "add",
          },
        ],
      }
    }
  />
  <div
    className=""
  />
</div>
`;
